%YAML 1.1
%TAG !u! tag:unity3d.com,2011:
--- !u!1001 &100100000
Prefab:
  m_ObjectHideFlags: 1
  serializedVersion: 2
  m_Modification:
    m_TransformParent: {fileID: 0}
    m_Modifications: []
    m_RemovedComponents: []
  m_ParentPrefab: {fileID: 0}
  m_RootGameObject: {fileID: 1000010255022904}
  m_IsPrefabParent: 1
--- !u!1 &1000010255022904
GameObject:
  m_ObjectHideFlags: 0
  m_PrefabParentObject: {fileID: 0}
  m_PrefabInternal: {fileID: 100100000}
  serializedVersion: 5
  m_Component:
  - component: {fileID: 4000012861316946}
  - component: {fileID: 114000010848658332}
  - component: {fileID: 212000013567115274}
  m_Layer: 0
  m_Name: Pie
  m_TagString: Untagged
  m_Icon: {fileID: 0}
  m_NavMeshLayer: 0
  m_StaticEditorFlags: 0
  m_IsActive: 1
--- !u!4 &4000012861316946
Transform:
  m_ObjectHideFlags: 1
  m_PrefabParentObject: {fileID: 0}
  m_PrefabInternal: {fileID: 100100000}
  m_GameObject: {fileID: 1000010255022904}
  m_LocalRotation: {x: 0, y: 0, z: 0, w: 1}
  m_LocalPosition: {x: 0, y: 0, z: 0}
  m_LocalScale: {x: 2, y: 2, z: 1}
  m_Children: []
  m_Father: {fileID: 0}
  m_RootOrder: 0
  m_LocalEulerAnglesHint: {x: 0, y: 0, z: 0}
--- !u!114 &114000010848658332
MonoBehaviour:
  m_ObjectHideFlags: 1
  m_PrefabParentObject: {fileID: 0}
  m_PrefabInternal: {fileID: 100100000}
  m_GameObject: {fileID: 1000010255022904}
  m_Enabled: 1
  m_EditorHideFlags: 0
  m_Script: {fileID: 11500000, guid: 409a53c2fc720400bb482962c5563548, type: 3}
  m_Name: 
  m_EditorClassIdentifier: 
  settings:
    _blur: 0
    _endAngle: 360
    _fillColor: {r: 1, g: 0.2689655, b: 0, a: 1}
    _fillColor2: {r: 0.94509804, g: 0.76862746, b: 0.05882353, a: 1}
    _fillOffset: {x: 0, y: 0}
    _fillPathLoops: 0
    _fillRotation: 0
    _fillScale: {x: 1, y: 1}
    _fillTexture: {fileID: 0}
    _fillType: 2
    _gradientAxis: 0
    _gradientStart: 0
    _gradientType: 0
    _gridSize: 0.5
    _innerCutout: {x: 0, y: 0}
    _invertArc: 0
    _lineSize: 0.1
    _obsoleteNumSides: -1
    _outlineColor: {r: 1, g: 1, b: 1, a: 1}
    _outlineSize: 0.04
    _pathSegments:
    - p0: {x: -0.3, y: 0, z: 0}
      p1: {x: 0, y: 0, z: 0}
      p2: {x: 0.3, y: 0, z: 0}
    _polygonPreset: 4
    _roundness: 0.25
    _roundnessBottomLeft: 1
    _roundnessBottomRight: 1
    _roundnessPerCorner: 0
    _roundnessTopLeft: 1
    _roundnessTopRight: 1
    _shapeType: 0
    _startAngle: 90
    _pathThickness: 0.1
    _triangleOffset: 0.5
    _usePolygonMap: 0
    _polyVertices:
    - {x: -0.000000021855694, y: 0.5}
    - {x: -0.4330127, y: 0.25000003}
    - {x: -0.43301263, y: -0.2500001}
    - {x: 0.0000000059624403, y: -0.5}
    - {x: 0.43301278, y: -0.24999988}
    - {x: 0.4330127, y: 0.25000003}
  wasConverted: 0
  preConvertedScale: {x: 0, y: 0, z: 0}
--- !u!212 &212000013567115274
SpriteRenderer:
  m_ObjectHideFlags: 1
  m_PrefabParentObject: {fileID: 0}
  m_PrefabInternal: {fileID: 100100000}
  m_GameObject: {fileID: 1000010255022904}
  m_Enabled: 1
  m_CastShadows: 0
  m_ReceiveShadows: 0
  m_DynamicOccludee: 1
  m_MotionVectors: 1
  m_LightProbeUsage: 0
  m_ReflectionProbeUsage: 0
  m_Materials:
  - {fileID: 0}
  m_StaticBatchInfo:
    firstSubMesh: 0
    subMeshCount: 0
  m_StaticBatchRoot: {fileID: 0}
  m_ProbeAnchor: {fileID: 0}
  m_LightProbeVolumeOverride: {fileID: 0}
  m_ScaleInLightmap: 1
  m_PreserveUVs: 0
  m_IgnoreNormalsForChartDetection: 0
  m_ImportantGI: 0
  m_StitchLightmapSeams: 0
  m_SelectedEditorRenderState: 0
  m_MinimumChartSize: 4
  m_AutoUVMaxDistance: 0.5
  m_AutoUVMaxAngle: 89
  m_LightmapParameters: {fileID: 0}
  m_SortingLayerID: 0
  m_SortingLayer: 0
  m_SortingOrder: 0
  m_Sprite: {fileID: 21300000, guid: c3c34e396a46f4439925b24e67779a5d, type: 3}
  m_Color: {r: 1, g: 1, b: 1, a: 1}
  m_FlipX: 0
  m_FlipY: 0
  m_DrawMode: 0
  m_Size: {x: 1, y: 1}
  m_AdaptiveModeThreshold: 0.5
  m_SpriteTileMode: 0
  m_WasSpriteAssigned: 1
  m_MaskInteraction: 0
