%YAML 1.1
%TAG !u! tag:unity3d.com,2011:
--- !u!1 &197732
GameObject:
  m_ObjectHideFlags: 0
  m_PrefabParentObject: {fileID: 0}
  m_PrefabInternal: {fileID: 100100000}
  serializedVersion: 5
  m_Component:
  - component: {fileID: 497732}
  - component: {fileID: 11496062}
  m_Layer: 0
  m_Name: GAv4
  m_TagString: Untagged
  m_Icon: {fileID: 0}
  m_NavMeshLayer: 0
  m_StaticEditorFlags: 0
  m_IsActive: 1
--- !u!4 &497732
Transform:
  m_ObjectHideFlags: 1
  m_PrefabParentObject: {fileID: 0}
  m_PrefabInternal: {fileID: 100100000}
  m_GameObject: {fileID: 197732}
  m_LocalRotation: {x: 0, y: 0, z: 0, w: 1}
  m_LocalPosition: {x: 0, y: 0, z: 0}
  m_LocalScale: {x: 1, y: 1, z: 1}
  m_Children: []
  m_Father: {fileID: 0}
  m_RootOrder: 0
  m_LocalEulerAnglesHint: {x: 0, y: 0, z: 0}
--- !u!114 &11496062
MonoBehaviour:
  m_ObjectHideFlags: 1
  m_PrefabParentObject: {fileID: 0}
  m_PrefabInternal: {fileID: 100100000}
  m_GameObject: {fileID: 197732}
  m_Enabled: 1
  m_EditorHideFlags: 0
  m_Script: {fileID: 11500000, guid: 115515dbbaaea4a6aaf6cbda8b04cb45, type: 3}
  m_Name: 
  m_EditorClassIdentifier: 
  androidTrackingCode: 
  IOSTrackingCode: UA-123867576-1
  otherTrackingCode: 
  sharedAndroidTrackingCode: UA-89236208-4
  sharedIOSTrackingCode: UA-89236208-5
  sharedOtherTrackingCode: 
  dispatchPeriod: 5
  sampleFrequency: 100
  logLevel: 1
  anonymizeIP: 0
  UncaughtExceptionReporting: 0
  sendLaunchEvent: 1
  dryRun: 0
  sessionTimeout: 1800
  enableAdId: 1
--- !u!1001 &100100000
Prefab:
  m_ObjectHideFlags: 1
  serializedVersion: 2
  m_Modification:
    m_TransformParent: {fileID: 0}
    m_Modifications: []
    m_RemovedComponents: []
  m_ParentPrefab: {fileID: 0}
  m_RootGameObject: {fileID: 197732}
  m_IsPrefabParent: 1
